﻿  Compiling CUDA source file cuda_kernel.cu...
  
  D:\Repo\Git\parallel_programming\lab4 - cuda\CudaApp4\CudaApp4>"C:\Program Files\NVIDIA GPU Computing Toolkit\CUDA\v11.2\bin\nvcc.exe" -gencode=arch=compute_52,code=\"sm_52,compute_52\" --use-local-env -ccbin "C:\Program Files (x86)\Microsoft Visual Studio\2019\Community\VC\Tools\MSVC\14.28.29333\bin\HostX86\x64" -x cu   -I"C:\Program Files\NVIDIA GPU Computing Toolkit\CUDA\v11.2\include" -I"C:\Program Files\NVIDIA GPU Computing Toolkit\CUDA\v11.2\include"     --keep-dir x64\Release  -maxrregcount=0  --machine 64 --compile -cudart static    -DNDEBUG -D_CONSOLE -D_UNICODE -DUNICODE -Xcompiler "/EHsc /W3 /nologo /O2 /Fdx64\Release\vc142.pdb /FS   /MD " -o x64\Release\cuda_kernel.cu.obj "D:\Repo\Git\parallel_programming\lab4 - cuda\CudaApp4\CudaApp4\cuda_kernel.cu" 
  cuda_kernel.cu
D:\Repo\Git\parallel_programming\lab4 - cuda\CudaApp4\CudaApp4\Header.h(277): warning C4700: использована неинициализированная локальная переменная "parallel_time_sum"
D:\Repo\Git\parallel_programming\lab4 - cuda\CudaApp4\CudaApp4\Header.h(278): warning C4700: использована неинициализированная локальная переменная "non_parallel_time_sum"
     Создается библиотека D:\Repo\Git\parallel_programming\lab4 - cuda\CudaApp4\x64\Release\CudaApp4.lib и объект D:\Repo\Git\parallel_programming\lab4 - cuda\CudaApp4\x64\Release\CudaApp4.exp
  LINK : указан параметр /LTCG, но не требуется создание кода; удалите /LTCG из командной строки компоновки для повышения производительности компоновщика
  CudaApp4.vcxproj -> D:\Repo\Git\parallel_programming\lab4 - cuda\CudaApp4\x64\Release\CudaApp4.exe
