^D:\REPO\GIT\PARALLEL_PROGRAMMING\LAB2\MPI\MPI\DEBUG\MAIN.OBJ|D:\REPO\GIT\PARALLEL_PROGRAMMING\LAB2\MPI\MPI\DEBUG\MPI_BCAST.OBJ|D:\REPO\GIT\PARALLEL_PROGRAMMING\LAB2\MPI\MPI\DEBUG\MPI_POINT_TO_POINT.OBJ
D:\REPO\GIT\PARALLEL_PROGRAMMING\LAB2\MPI\DEBUG\MPI.EXE
D:\REPO\GIT\PARALLEL_PROGRAMMING\LAB2\MPI\DEBUG\MPI.ILK
D:\REPO\GIT\PARALLEL_PROGRAMMING\LAB2\MPI\DEBUG\MPI.PDB
