^D:\REPO\GIT\PARALLEL_PROGRAMMING\LAB5\CUBLAS\CUDAAPP4\CUDAAPP4.CPP
/c /I"C:\PROGRAM FILES\NVIDIA GPU COMPUTING TOOLKIT\CUDA\V11.2\INCLUDE" /Zi /nologo /W3 /WX- /diagnostics:column /sdl /O2 /Oi /GL /D NDEBUG /D _CONSOLE /D _UNICODE /D UNICODE /Gm- /EHsc /MD /GS /Gy /fp:precise /permissive- /Zc:wchar_t /Zc:forScope /Zc:inline /Fo"X64\RELEASE\\" /Fd"X64\RELEASE\VC142.PDB" /Gd /TP /FC D:\REPO\GIT\PARALLEL_PROGRAMMING\LAB5\CUBLAS\CUDAAPP4\CUDAAPP4.CPP
^D:\REPO\GIT\PARALLEL_PROGRAMMING\LAB5\CUBLAS\CUDAAPP4\MAIN.CPP
/c /I"C:\PROGRAM FILES\NVIDIA GPU COMPUTING TOOLKIT\CUDA\V11.2\INCLUDE" /Zi /nologo /W3 /WX- /diagnostics:column /sdl /O2 /Oi /GL /D NDEBUG /D _CONSOLE /D _UNICODE /D UNICODE /Gm- /EHsc /MD /GS /Gy /fp:precise /permissive- /Zc:wchar_t /Zc:forScope /Zc:inline /Fo"X64\RELEASE\\" /Fd"X64\RELEASE\VC142.PDB" /Gd /TP /FC D:\REPO\GIT\PARALLEL_PROGRAMMING\LAB5\CUBLAS\CUDAAPP4\MAIN.CPP
^D:\REPO\GIT\PARALLEL_PROGRAMMING\LAB5 - CUBLAS\CUBLAS\CUDAAPP4\MAIN.CPP
/c /I"C:\PROGRAM FILES\NVIDIA GPU COMPUTING TOOLKIT\CUDA\V11.2\INCLUDE" /Zi /nologo /W3 /WX- /diagnostics:column /sdl /O2 /Oi /GL /D NDEBUG /D _CONSOLE /D _UNICODE /D UNICODE /Gm- /EHsc /MD /GS /Gy /fp:precise /permissive- /Zc:wchar_t /Zc:forScope /Zc:inline /Fo"X64\RELEASE\\" /Fd"X64\RELEASE\VC142.PDB" /Gd /TP /FC D:\REPO\GIT\PARALLEL_PROGRAMMING\LAB5 - CUBLAS\CUBLAS\CUDAAPP4\MAIN.CPP
